Data cleaning
…
colnames(df)[31] = "Gr_protein"
colnames(df)[32] = "test_weight"
colnames(df)[33] = "Yield"
df %>% group_by(germplasmName,locationName) %>% summarize_at(.vars = "Yield", .funs = c(min,max,mean))

# A tibble: 378 × 5
# Groups:   germplasmName [126]
   germplasmName locationName       fn1   fn2   fn3
   <fct>         <fct>            <dbl> <dbl> <dbl>
 1 EXPEDITION    Aurora, SD       4674  4674  4674 
 2 EXPEDITION    Dakota Lakes, SD 3013. 3901. 3457.
 3 EXPEDITION    Winner, SD       3921. 4728. 4324.
 4 IDEAL         Aurora, SD       5542. 5542. 5542.
 5 IDEAL         Dakota Lakes, SD 2912  3558. 3235.
 6 IDEAL         Winner, SD       3524  4466. 3995.
 7 OVERLAND      Aurora, SD       5454. 5454. 5454.
 8 OVERLAND      Dakota Lakes, SD 3248. 4190. 3719.
 9 OVERLAND      Winner, SD       4660. 4734. 4698.
10 REDFIELD      Aurora, SD       5091. 5091. 5091.
# … with 368 more rows
…
